width = 14; 
depth = 1023; 
address_radix = uns; 
data_radix = dec; 
content begin
0:0;
1:29;
2:57;
3:86;
4:114;
5:143;
6:172;
7:200;
8:229;
9:257;
10:286;
11:315;
12:343;
13:372;
14:400;
15:429;
16:457;
17:486;
18:515;
19:543;
20:572;
21:600;
22:629;
23:658;
24:686;
25:715;
26:743;
27:772;
28:800;
29:829;
30:857;
31:886;
32:915;
33:943;
34:972;
35:1000;
36:1029;
37:1057;
38:1086;
39:1114;
40:1143;
41:1171;
42:1200;
43:1228;
44:1257;
45:1285;
46:1314;
47:1342;
48:1371;
49:1399;
50:1428;
51:1456;
52:1485;
53:1513;
54:1542;
55:1570;
56:1599;
57:1627;
58:1656;
59:1684;
60:1713;
61:1741;
62:1769;
63:1798;
64:1826;
65:1855;
66:1883;
67:1912;
68:1940;
69:1968;
70:1997;
71:2025;
72:2053;
73:2082;
74:2110;
75:2139;
76:2167;
77:2195;
78:2224;
79:2252;
80:2280;
81:2309;
82:2337;
83:2365;
84:2393;
85:2422;
86:2450;
87:2478;
88:2507;
89:2535;
90:2563;
91:2591;
92:2619;
93:2648;
94:2676;
95:2704;
96:2732;
97:2761;
98:2789;
99:2817;
100:2845;
101:2873;
102:2901;
103:2929;
104:2958;
105:2986;
106:3014;
107:3042;
108:3070;
109:3098;
110:3126;
111:3154;
112:3182;
113:3210;
114:3238;
115:3266;
116:3294;
117:3322;
118:3350;
119:3378;
120:3406;
121:3434;
122:3462;
123:3490;
124:3518;
125:3546;
126:3574;
127:3602;
128:3630;
129:3658;
130:3686;
131:3713;
132:3741;
133:3769;
134:3797;
135:3825;
136:3853;
137:3880;
138:3908;
139:3936;
140:3964;
141:3991;
142:4019;
143:4047;
144:4075;
145:4102;
146:4130;
147:4158;
148:4185;
149:4213;
150:4240;
151:4268;
152:4296;
153:4323;
154:4351;
155:4378;
156:4406;
157:4434;
158:4461;
159:4489;
160:4516;
161:4544;
162:4571;
163:4598;
164:4626;
165:4653;
166:4681;
167:4708;
168:4735;
169:4763;
170:4790;
171:4818;
172:4845;
173:4872;
174:4899;
175:4927;
176:4954;
177:4981;
178:5009;
179:5036;
180:5063;
181:5090;
182:5117;
183:5144;
184:5172;
185:5199;
186:5226;
187:5253;
188:5280;
189:5307;
190:5334;
191:5361;
192:5388;
193:5415;
194:5442;
195:5469;
196:5496;
197:5523;
198:5550;
199:5577;
200:5604;
201:5631;
202:5657;
203:5684;
204:5711;
205:5738;
206:5765;
207:5791;
208:5818;
209:5845;
210:5872;
211:5898;
212:5925;
213:5952;
214:5978;
215:6005;
216:6031;
217:6058;
218:6084;
219:6111;
220:6138;
221:6164;
222:6191;
223:6217;
224:6243;
225:6270;
226:6296;
227:6323;
228:6349;
229:6375;
230:6402;
231:6428;
232:6454;
233:6481;
234:6507;
235:6533;
236:6559;
237:6586;
238:6612;
239:6638;
240:6664;
241:6690;
242:6716;
243:6742;
244:6768;
245:6794;
246:6820;
247:6846;
248:6872;
249:6898;
250:6924;
251:6950;
252:6976;
253:7002;
254:7028;
255:7053;
256:7079;
257:7105;
258:7131;
259:7157;
260:7182;
261:7208;
262:7234;
263:7259;
264:7285;
265:7311;
266:7336;
267:7362;
268:7387;
269:7413;
270:7438;
271:7464;
272:7489;
273:7515;
274:7540;
275:7565;
276:7591;
277:7616;
278:7641;
279:7667;
280:7692;
281:7717;
282:7742;
283:7767;
284:7793;
285:7818;
286:7843;
287:7868;
288:7893;
289:7918;
290:7943;
291:7968;
292:7993;
293:8018;
294:8043;
295:8068;
296:8093;
297:8118;
298:8142;
299:8167;
300:8192;
301:8217;
302:8241;
303:8266;
304:8291;
305:8316;
306:8340;
307:8365;
308:8389;
309:8414;
310:8438;
311:8463;
312:8487;
313:8512;
314:8536;
315:8561;
316:8585;
317:8609;
318:8634;
319:8658;
320:8682;
321:8706;
322:8731;
323:8755;
324:8779;
325:8803;
326:8827;
327:8851;
328:8875;
329:8899;
330:8923;
331:8947;
332:8971;
333:8995;
334:9019;
335:9043;
336:9067;
337:9091;
338:9114;
339:9138;
340:9162;
341:9186;
342:9209;
343:9233;
344:9256;
345:9280;
346:9304;
347:9327;
348:9351;
349:9374;
350:9397;
351:9421;
352:9444;
353:9468;
354:9491;
355:9514;
356:9538;
357:9561;
358:9584;
359:9607;
360:9630;
361:9653;
362:9676;
363:9700;
364:9723;
365:9746;
366:9769;
367:9791;
368:9814;
369:9837;
370:9860;
371:9883;
372:9906;
373:9929;
374:9951;
375:9974;
376:9997;
377:10019;
378:10042;
379:10064;
380:10087;
381:10110;
382:10132;
383:10154;
384:10177;
385:10199;
386:10222;
387:10244;
388:10266;
389:10289;
390:10311;
391:10333;
392:10355;
393:10377;
394:10399;
395:10422;
396:10444;
397:10466;
398:10488;
399:10510;
400:10531;
401:10553;
402:10575;
403:10597;
404:10619;
405:10641;
406:10662;
407:10684;
408:10706;
409:10727;
410:10749;
411:10770;
412:10792;
413:10813;
414:10835;
415:10856;
416:10878;
417:10899;
418:10920;
419:10942;
420:10963;
421:10984;
422:11005;
423:11027;
424:11048;
425:11069;
426:11090;
427:11111;
428:11132;
429:11153;
430:11174;
431:11195;
432:11216;
433:11236;
434:11257;
435:11278;
436:11299;
437:11319;
438:11340;
439:11361;
440:11381;
441:11402;
442:11422;
443:11443;
444:11463;
445:11484;
446:11504;
447:11524;
448:11545;
449:11565;
450:11585;
451:11605;
452:11626;
453:11646;
454:11666;
455:11686;
456:11706;
457:11726;
458:11746;
459:11766;
460:11786;
461:11806;
462:11825;
463:11845;
464:11865;
465:11885;
466:11904;
467:11924;
468:11943;
469:11963;
470:11982;
471:12002;
472:12021;
473:12041;
474:12060;
475:12080;
476:12099;
477:12118;
478:12137;
479:12157;
480:12176;
481:12195;
482:12214;
483:12233;
484:12252;
485:12271;
486:12290;
487:12309;
488:12328;
489:12346;
490:12365;
491:12384;
492:12403;
493:12421;
494:12440;
495:12458;
496:12477;
497:12496;
498:12514;
499:12532;
500:12551;
501:12569;
502:12588;
503:12606;
504:12624;
505:12642;
506:12660;
507:12679;
508:12697;
509:12715;
510:12733;
511:12751;
512:12769;
513:12787;
514:12804;
515:12822;
516:12840;
517:12858;
518:12875;
519:12893;
520:12911;
521:12928;
522:12946;
523:12963;
524:12981;
525:12998;
526:13016;
527:13033;
528:13050;
529:13068;
530:13085;
531:13102;
532:13119;
533:13136;
534:13153;
535:13170;
536:13187;
537:13204;
538:13221;
539:13238;
540:13255;
541:13272;
542:13288;
543:13305;
544:13322;
545:13338;
546:13355;
547:13372;
548:13388;
549:13405;
550:13421;
551:13437;
552:13454;
553:13470;
554:13486;
555:13502;
556:13519;
557:13535;
558:13551;
559:13567;
560:13583;
561:13599;
562:13615;
563:13631;
564:13647;
565:13662;
566:13678;
567:13694;
568:13710;
569:13725;
570:13741;
571:13756;
572:13772;
573:13787;
574:13803;
575:13818;
576:13833;
577:13849;
578:13864;
579:13879;
580:13894;
581:13910;
582:13925;
583:13940;
584:13955;
585:13970;
586:13985;
587:13999;
588:14014;
589:14029;
590:14044;
591:14059;
592:14073;
593:14088;
594:14102;
595:14117;
596:14131;
597:14146;
598:14160;
599:14175;
600:14189;
601:14203;
602:14217;
603:14232;
604:14246;
605:14260;
606:14274;
607:14288;
608:14302;
609:14316;
610:14330;
611:14344;
612:14357;
613:14371;
614:14385;
615:14399;
616:14412;
617:14426;
618:14439;
619:14453;
620:14466;
621:14480;
622:14493;
623:14506;
624:14520;
625:14533;
626:14546;
627:14559;
628:14572;
629:14585;
630:14598;
631:14611;
632:14624;
633:14637;
634:14650;
635:14663;
636:14675;
637:14688;
638:14701;
639:14713;
640:14726;
641:14738;
642:14751;
643:14763;
644:14776;
645:14788;
646:14800;
647:14812;
648:14825;
649:14837;
650:14849;
651:14861;
652:14873;
653:14885;
654:14897;
655:14909;
656:14921;
657:14932;
658:14944;
659:14956;
660:14968;
661:14979;
662:14991;
663:15002;
664:15014;
665:15025;
666:15036;
667:15048;
668:15059;
669:15070;
670:15082;
671:15093;
672:15104;
673:15115;
674:15126;
675:15137;
676:15148;
677:15159;
678:15169;
679:15180;
680:15191;
681:15202;
682:15212;
683:15223;
684:15233;
685:15244;
686:15254;
687:15265;
688:15275;
689:15286;
690:15296;
691:15306;
692:15316;
693:15326;
694:15336;
695:15346;
696:15356;
697:15366;
698:15376;
699:15386;
700:15396;
701:15406;
702:15415;
703:15425;
704:15435;
705:15444;
706:15454;
707:15463;
708:15473;
709:15482;
710:15491;
711:15501;
712:15510;
713:15519;
714:15528;
715:15537;
716:15546;
717:15555;
718:15564;
719:15573;
720:15582;
721:15591;
722:15600;
723:15608;
724:15617;
725:15626;
726:15634;
727:15643;
728:15651;
729:15660;
730:15668;
731:15676;
732:15685;
733:15693;
734:15701;
735:15709;
736:15717;
737:15725;
738:15733;
739:15741;
740:15749;
741:15757;
742:15765;
743:15773;
744:15780;
745:15788;
746:15796;
747:15803;
748:15811;
749:15818;
750:15826;
751:15833;
752:15840;
753:15848;
754:15855;
755:15862;
756:15869;
757:15876;
758:15883;
759:15890;
760:15897;
761:15904;
762:15911;
763:15918;
764:15925;
765:15931;
766:15938;
767:15945;
768:15951;
769:15958;
770:15964;
771:15970;
772:15977;
773:15983;
774:15989;
775:15996;
776:16002;
777:16008;
778:16014;
779:16020;
780:16026;
781:16032;
782:16038;
783:16044;
784:16049;
785:16055;
786:16061;
787:16066;
788:16072;
789:16077;
790:16083;
791:16088;
792:16094;
793:16099;
794:16104;
795:16110;
796:16115;
797:16120;
798:16125;
799:16130;
800:16135;
801:16140;
802:16145;
803:16150;
804:16155;
805:16159;
806:16164;
807:16169;
808:16173;
809:16178;
810:16182;
811:16187;
812:16191;
813:16195;
814:16200;
815:16204;
816:16208;
817:16212;
818:16216;
819:16221;
820:16225;
821:16229;
822:16232;
823:16236;
824:16240;
825:16244;
826:16248;
827:16251;
828:16255;
829:16258;
830:16262;
831:16265;
832:16269;
833:16272;
834:16275;
835:16279;
836:16282;
837:16285;
838:16288;
839:16291;
840:16294;
841:16297;
842:16300;
843:16303;
844:16306;
845:16309;
846:16311;
847:16314;
848:16317;
849:16319;
850:16322;
851:16324;
852:16327;
853:16329;
854:16331;
855:16333;
856:16336;
857:16338;
858:16340;
859:16342;
860:16344;
861:16346;
862:16348;
863:16350;
864:16352;
865:16353;
866:16355;
867:16357;
868:16358;
869:16360;
870:16362;
871:16363;
872:16364;
873:16366;
874:16367;
875:16368;
876:16370;
877:16371;
878:16372;
879:16373;
880:16374;
881:16375;
882:16376;
883:16377;
884:16378;
885:16378;
886:16379;
887:16380;
888:16380;
889:16381;
890:16382;
891:16382;
892:16382;
893:16383;
894:16383;
895:16383;
896:16383;
897:16383;
898:16383;
899:16383;
900:16383;
end;
